<?xml version="1.0" encoding="UTF-8"?>
<svg width="14px" height="12px" viewBox="0 0 14 12" version="1.1" xmlns="http://www.w3.org/2000/svg" xmlns:xlink="http://www.w3.org/1999/xlink">
    <!-- Generator: Sketch 50.2 (55047) - http://www.bohemiancoding.com/sketch -->
    <title></title>
    <desc>Created with Sketch.</desc>
    <defs></defs>
    <g id="D-Auto" stroke="none" stroke-width="1" fill="none" fill-rule="evenodd">
        <g id="Cabinet-Auto-heatmap-off" transform="translate(-1246.000000, -689.000000)" fill="#FFFFFF">
            <g id="Campaign-Stats" transform="translate(130.000000, 650.000000)">
                <g id="Group-5" transform="translate(1000.000000, 25.000000)">
                    <g id="OTS" transform="translate(100.000000, 0.000000)">
                        <path d="M27,21.25 L27,23.75 C27,24.3697948 26.7799501,24.8997374 26.3398438,25.3398438 C25.8997374,25.7799501 25.3697948,26 24.75,26 L18.25,26 C17.6302052,26 17.1002626,25.7799501 16.6601562,25.3398438 C16.2200499,24.8997374 16,24.3697948 16,23.75 L16,17.25 C16,16.6302052 16.2200499,16.1002626 16.6601562,15.6601562 C17.1002626,15.2200499 17.6302052,15 18.25,15 L23.75,15 C23.822917,15 23.8828123,15.0234373 23.9296875,15.0703125 C23.9765627,15.1171877 24,15.177083 24,15.25 L24,15.75 C24,15.822917 23.9765627,15.8828123 23.9296875,15.9296875 C23.8828123,15.9765627 23.822917,16 23.75,16 L18.25,16 C17.9062483,16 17.6119804,16.1223946 17.3671875,16.3671875 C17.1223946,16.6119804 17,16.9062483 17,17.25 L17,23.75 C17,24.0937517 17.1223946,24.3880196 17.3671875,24.6328125 C17.6119804,24.8776054 17.9062483,25 18.25,25 L24.75,25 C25.0937517,25 25.3880196,24.8776054 25.6328125,24.6328125 C25.8776054,24.3880196 26,24.0937517 26,23.75 L26,21.25 C26,21.177083 26.0234373,21.1171877 26.0703125,21.0703125 C26.1171877,21.0234373 26.177083,21 26.25,21 L26.75,21 C26.822917,21 26.8828123,21.0234373 26.9296875,21.0703125 C26.9765627,21.1171877 27,21.177083 27,21.25 Z M30,14.5 L30,18.5 C30,18.6354173 29.9505213,18.7526037 29.8515625,18.8515625 C29.7526037,18.9505213 29.6354173,19 29.5,19 C29.3645827,19 29.2473963,18.9505213 29.1484375,18.8515625 L27.7734375,17.4765625 L22.6796875,22.5703125 C22.6276039,22.6223961 22.5677087,22.6484375 22.5,22.6484375 C22.4322913,22.6484375 22.3723961,22.6223961 22.3203125,22.5703125 L21.4296875,21.6796875 C21.3776039,21.6276039 21.3515625,21.5677087 21.3515625,21.5 C21.3515625,21.4322913 21.3776039,21.3723961 21.4296875,21.3203125 L26.5234375,16.2265625 L25.1484375,14.8515625 C25.0494787,14.7526037 25,14.6354173 25,14.5 C25,14.3645827 25.0494787,14.2473963 25.1484375,14.1484375 C25.2473963,14.0494787 25.3645827,14 25.5,14 L29.5,14 C29.6354173,14 29.7526037,14.0494787 29.8515625,14.1484375 C29.9505213,14.2473963 30,14.3645827 30,14.5 Z" id=""></path>
                    </g>
                </g>
            </g>
        </g>
    </g>
</svg>