<?xml version="1.0" encoding="UTF-8"?>
<svg width="16px" height="11px" viewBox="0 0 16 11" version="1.1" xmlns="http://www.w3.org/2000/svg" xmlns:xlink="http://www.w3.org/1999/xlink">
    <!-- Generator: Sketch 50.2 (55047) - http://www.bohemiancoding.com/sketch -->
    <title></title>
    <desc>Created with Sketch.</desc>
    <defs></defs>
    <g id="D-Auto" stroke="none" stroke-width="1" fill="none" fill-rule="evenodd">
        <g id="Cabinet-Auto-heatmap-on" transform="translate(-1194.000000, -186.000000)" fill="#C9C9C9">
            <g id="Map" transform="translate(0.000000, 140.000000)">
                <g id="Heatmap-control" transform="translate(996.000000, 30.000000)">
                    <g id="Online" transform="translate(183.000000, 0.000000)">
                        <path d="M29.8571429,21.1428571 C28.9523764,19.7380882 27.8184592,18.6875035 26.4553571,17.9910714 C26.8184542,18.6101221 27,19.2797583 27,20 C27,21.101196 26.6086349,22.0431508 25.8258929,22.8258929 C25.0431508,23.6086349 24.101196,24 23,24 C21.898804,24 20.9568492,23.6086349 20.1741071,22.8258929 C19.3913651,22.0431508 19,21.101196 19,20 C19,19.2797583 19.1815458,18.6101221 19.5446429,17.9910714 C18.1815408,18.6875035 17.0476236,19.7380882 16.1428571,21.1428571 C16.9345278,22.3631013 17.9270774,23.3348178 19.1205357,24.0580357 C20.3139941,24.7812536 21.6071359,25.1428571 23,25.1428571 C24.3928641,25.1428571 25.6860059,24.7812536 26.8794643,24.0580357 C28.0729226,23.3348178 29.0654722,22.3631013 29.8571429,21.1428571 Z M23.4285714,17.7142857 C23.4285714,17.5952375 23.3869052,17.494048 23.3035714,17.4107143 C23.2202377,17.3273805 23.1190482,17.2857143 23,17.2857143 C22.2559487,17.2857143 21.6175622,17.5520807 21.0848214,18.0848214 C20.5520807,18.6175622 20.2857143,19.2559487 20.2857143,20 C20.2857143,20.1190482 20.3273805,20.2202377 20.4107143,20.3035714 C20.494048,20.3869052 20.5952375,20.4285714 20.7142857,20.4285714 C20.8333339,20.4285714 20.9345234,20.3869052 21.0178571,20.3035714 C21.1011909,20.2202377 21.1428571,20.1190482 21.1428571,20 C21.1428571,19.4880927 21.3244029,19.0505971 21.6875,18.6875 C22.0505971,18.3244029 22.4880927,18.1428571 23,18.1428571 C23.1190482,18.1428571 23.2202377,18.1011909 23.3035714,18.0178571 C23.3869052,17.9345234 23.4285714,17.8333339 23.4285714,17.7142857 Z M31,21.1428571 C31,21.3452391 30.9404768,21.5505942 30.8214286,21.7589286 C29.9880911,23.127983 28.8675666,24.2246983 27.4598214,25.0491071 C26.0520763,25.873516 24.565484,26.2857143 23,26.2857143 C21.434516,26.2857143 19.9479237,25.8720279 18.5401786,25.0446429 C17.1324334,24.2172578 16.0119089,23.1220306 15.1785714,21.7589286 C15.0595232,21.5505942 15,21.3452391 15,21.1428571 C15,20.9404752 15.0595232,20.7351201 15.1785714,20.5267857 C16.0119089,19.1636837 17.1324334,18.0684565 18.5401786,17.2410714 C19.9479237,16.4136863 21.434516,16 23,16 C24.565484,16 26.0520763,16.4136863 27.4598214,17.2410714 C28.8675666,18.0684565 29.9880911,19.1636837 30.8214286,20.5267857 C30.9404768,20.7351201 31,20.9404752 31,21.1428571 Z" id=""></path>
                    </g>
                </g>
            </g>
        </g>
    </g>
</svg>