<svg xmlns="http://www.w3.org/2000/svg" width="30" height="13" viewBox="0 0 30 13">
  <path fill="#FFF" d="M1.77045248,12.9564641 C1.09135867,12.8017607 0.611998339,12.5697058 0.492158255,12.2216233 C0.132638004,10.8679693 -0.426615719,9.4756395 0.53210495,9.28226035 C0.53210495,9.28226035 -0.186935552,6.26554573 8.52144386,5.60805665 C13.994141,0.773578081 16.0046604,1.04430888 23.5545857,2.01120459 C23.5545857,2.01120459 26.8701613,1.19901219 24.8328799,2.43663871 C24.8328799,2.43663871 26.3109076,4.0610235 26.8302146,5.22129836 C26.8302146,5.22129836 28.6278159,5.80143579 28.2682956,8.50874378 C29.0272828,8.97285373 29.5465899,11.6801617 28.4680291,11.7188376 C28.4280824,9.97842527 27.5926087,8.11349397 24.8328799,8.11349397 C22.0731511,8.11349397 20.9427865,10.1364749 21.5305512,13.0338157 L8.52144386,13.0338157 C9.23784967,11.0851711 8.52144386,8.11349397 5.53627228,8.11349397 C2.5511007,8.11349397 0.931571895,10.8679693 1.77045248,12.9564641 Z M5.3147893,9.1690786 C7.17218432,9.1690786 8.30725906,11.1168113 7.48175016,12.7228365 C6.55305265,14.431374 4.07652596,14.431374 3.18222465,12.6886658 C2.35671575,11.1168113 3.49179049,9.1690786 5.3147893,9.1690786 Z M24.7330941,9.1690786 C27.9471535,9.1690786 27.9471535,14 24.7330941,14 C23.488942,14 22.4521487,13.0749299 22.3139095,11.8415032 C22.1411107,10.4367672 23.2815834,9.1690786 24.7330941,9.1690786 Z" opacity=".5" transform="matrix(-1 0 0 1 29.082 -1)"/>
</svg>
