<?xml version="1.0" encoding="UTF-8"?>
<svg width="12px" height="13px" viewBox="0 0 12 13" version="1.1" xmlns="http://www.w3.org/2000/svg" xmlns:xlink="http://www.w3.org/1999/xlink">
    <!-- Generator: sketchtool 50.2 (55047) - http://www.bohemiancoding.com/sketch -->
    <title>0F414E5E-F109-4BD5-B277-E63F5EBE9A02</title>
    <desc>Created with sketchtool.</desc>
    <defs>
        <linearGradient x1="0%" y1="0%" x2="101.999998%" y2="100.999999%" id="linearGradient-1">
            <stop stop-color="#3023AE" offset="0%"></stop>
            <stop stop-color="#C86DD7" offset="100%"></stop>
        </linearGradient>
    </defs>
    <g id="Styleguide" stroke="none" stroke-width="1" fill="none" fill-rule="evenodd">
        <g id="Styleguide-UI" transform="translate(-596.000000, -1912.000000)" fill="url(#linearGradient-1)" fill-rule="nonzero">
            <g id="Player" transform="translate(130.000000, 1792.000000)">
                <g id="Group-7-Copy" transform="translate(464.000000, 119.000000)">
                    <g id="noun_86423_cc" transform="translate(2.000000, 1.000000)">
                        <path d="M9.846,6.93785106 C9.846,8.99378723 8.11814286,10.6665 5.99442857,10.6665 C3.87071429,10.6665 2.14285714,8.99378723 2.14285714,6.93785106 C2.14285714,5.09862766 3.526,3.56725532 5.33785714,3.26452128 L5.33785714,4.34407447 L9.22342857,2.17224468 L5.33785714,0 L5.33785714,1.1702766 C2.34042857,1.48780851 0,3.95282979 0,6.93785106 C0,10.1376489 2.68914286,12.7408298 5.99442857,12.7408298 C9.29985714,12.7408298 11.9888571,10.1376489 11.9888571,6.93771277 L9.846,6.93771277 L9.846,6.93785106 Z" id="Shape"></path>
                    </g>
                </g>
            </g>
        </g>
    </g>
</svg>